{
    "KPlugin": {
        "Description": "Per-application network usage",
        "Description[az]": "Hər tətbiqin şəbəkə istifadəsi",
        "Description[ca@valencia]": "Ús de la xarxa per aplicació",
        "Description[ca]": "Ús de la xarxa per aplicació",
        "Description[cs]": "Vyžití sítě jednotlivými aplikacemi",
        "Description[da]": "Netværksforbrug pr. program",
        "Description[de]": "Netzwerknutzung je Programm",
        "Description[en_GB]": "Per-application network usage",
        "Description[es]": "Uso de red por aplicaciones",
        "Description[et]": "Võrgukasutus rakenduste kaupa",
        "Description[eu]": "Sare erabilera aplikazioko",
        "Description[fi]": "Sovelluskohtainen verkonkäyttö",
        "Description[fr]": "Utilisation du réseau par application",
        "Description[hu]": "Alkalmazásonkénti hálózathasználat",
        "Description[ia]": "Uso de rete per application",
        "Description[id]": "Penggunaan jaringan tiap aplikasi",
        "Description[it]": "Utilizzo della rete per applicazione",
        "Description[ko]": "프로그램별 네트워크 사용량",
        "Description[lt]": "Tinklo naudojimas kiekvienai atskirai programai",
        "Description[nl]": "Netwerkgebruik per toepassing",
        "Description[nn]": "Programspesifikk nettverksbruk",
        "Description[pa]": "ਹਰ-ਐਪਲੀਕੇਸ਼ਨ ਨੈ਼ਟਵਰਕ ਵਰਤੋਂ",
        "Description[pl]": "Wykorzystanie sieci wg aplikacji",
        "Description[pt]": "Utilização da rede por aplicação",
        "Description[pt_BR]": "Uso da rede por aplicativo",
        "Description[ro]": "Utilizarea rețelei per aplicație",
        "Description[ru]": "Статистика использования сети приложениями",
        "Description[sk]": "Využitie siete podľa aplikácie",
        "Description[sl]": "Raba omrežja po aplikacijah",
        "Description[sv]": "Nätverksanvändning per program",
        "Description[tg]": "Истифодаи шабака барои ҳар як барнома",
        "Description[uk]": "Використання мережі окремими програмами",
        "Description[vi]": "Lượng dùng mạng của từng ứng dụng",
        "Description[x-test]": "xxPer-application network usagexx",
        "Description[zh_CN]": "每个应用程序的网络使用率",
        "Description[zh_TW]": "每個應用程式的網路使用量"
    }
}
