{
    "KPlugin": {
        "Description": "Stats of per-process GPU resources for Nvidia cards",
        "Description[az]": "Nvidia kartları üçün hər bir prosesə GPU mənbələrinin statistikası",
        "Description[ca@valencia]": "Estadístiques dels recursos de GPU per procés per a les targetes Nvidia",
        "Description[ca]": "Estadístiques dels recursos de GPU per procés per a les targetes Nvidia",
        "Description[da]": "Stats over GPU-ressourcer pr. proces for Nvidia-kort",
        "Description[de]": "Statistik der GPU-Ressourcen je Prozess für Nvidia-Grafikkarten",
        "Description[en_GB]": "Stats of per-process GPU resources for Nvidia cards",
        "Description[es]": "Estadísticas de recursos de GPU por proceso para tarjetas Nvidia",
        "Description[et]": "Protsesside GPU kasutuse statistika Nvidia kaartide korral",
        "Description[eu]": "Nvidia txartelen GPU baliabideen estatistikak prozesuko",
        "Description[fi]": "Nvidia-korttien prosessikohtaiset GPU-resurssitilastot",
        "Description[fr]": "Statistiques des ressources GPU par processus pour les cartes Nvidia",
        "Description[hu]": "GPU erőforrások folyamatonkénti statisztikái Nvidia kártyákhoz",
        "Description[ia]": "Statisticas de ressources de GPU per processo pro cartas de Nvidia",
        "Description[id]": "Status sumberdaya GPU tiap proses untuk kartu Nvidia",
        "Description[it]": "Statistiche delle risorse GPU per processo delle schede Nvidia",
        "Description[ko]": "Nvidia 카드의 프로세스별 GPU 자원 통계",
        "Description[lt]": "Nvidia plokščių grafinio procesoriaus išteklių statistika kiekvienam atskiram procesui",
        "Description[nl]": "Statistieken van per-proces GPU-hulpbronnen voor Nvidia kaarten",
        "Description[nn]": "Statistikk til prosessorspesifikke GPU-ressursar for NVIDIA-kort",
        "Description[pa]": "ਇਨਵੀਡੀਆ ਕਾਰਡ ਲਈ ਹਰ ਪਰੋਸੈਸ GPU ਸਰੋਤਾਂ ਦੇ ਅੰਕੜੇ",
        "Description[pl]": "Statystyka dla zasobów GPU na proces dla kart Nvidii",
        "Description[pt]": "Estatísticas dos recursos do GPU por processo nas placas Nvidia",
        "Description[pt_BR]": "Estatísticas de recursos GPU por processo para placas Nvidia",
        "Description[ro]": "Statistici per proces ale resurselor GPU pentru plăci Nvidia",
        "Description[ru]": "Статистика использования процессами ресурсов GPU для карт Nvidia",
        "Description[sk]": "Štatistiky GPU zdrojov na proces pre karty Nvidia",
        "Description[sl]": "Statistike virov GPE za kartice Nvidia po procesih",
        "Description[sv]": "Statistik över grafikprocessorresurser per process för Nvidia-kort",
        "Description[tg]": "Омори ҳар як раванди манбаъи GPU барои кортҳои Nvidia",
        "Description[uk]": "Статистика ресурсів окремих процесів графічного процесора для карток NVidia",
        "Description[vi]": "Số liệu về các tài nguyên GPU của từng tiến trình cho các bộ xử lí NVIDIA",
        "Description[x-test]": "xxStats of per-process GPU resources for Nvidia cardsxx",
        "Description[zh_CN]": "每个进程的 GPU 资源状态，仅限 Nvidia 显卡",
        "Description[zh_TW]": "適用於 Nvidia 卡的各處理程序 GPU 資源統計"
    }
}
